%YAML 1.1
%TAG !u! tag:unity3d.com,2011:
--- !u!1045 &1
EditorBuildSettings:
  m_ObjectHideFlags: 0
  serializedVersion: 2
  m_Scenes:
  - enabled: 1
    path: Assets/Scenes/SampleScene.unity
    guid: 2cda990e2423bbf4892e6590ba056729
  - enabled: 1
    path: Assets/Scenes/End.unity
    guid: 977a08354909769998473ffbb656afed
  - enabled: 1
    path: Assets/Scenes/Game.unity
    guid: 2cda990e2423bbf4892e6590ba056729
  m_configObjects: {}
